Munich in numbers
…
## [1] 288

#( dsCor[,col_has_over_90] )

the correlate package

library(corrr)
correlate(dsFinal, use = "pairwise.complete.obs")

## 
## Correlation method: 'pearson'
## Missing treated using: 'pairwise.complete.obs'

## # A tibble: 288 x 289
##    rowname `WITTERUNG - Lu~ `WITTERUNG - Lu~ `WITTERUNG - Lu~
##    <chr>              <dbl>            <dbl>            <dbl>
##  1 WITTER~          NA               -0.648         -0.622   
##  2 WITTER~          -0.648           NA              0.959   
##  3 WITTER~          -0.622            0.959         NA       
##  4 WITTER~          -0.513            0.904          0.958   
##  5 WITTER~          -0.0824           0.435          0.482   
##  6 WITTER~           0.260           -0.0987        -0.0835  
##  7 WITTER~          -0.823            0.830          0.845   
##  8 WIRTSC~           0.0399          -0.0270        -0.000122
##  9 WIRTSC~          -0.0729          -0.0955        -0.0721  
## 10 WIRTSC~          -0.161            0.221          0.250   
## # ... with 278 more rows, and 285 more variables: `WITTERUNG -
## #   Lufttemperatur - Tiefste Lufttemperatur` <dbl>, `WITTERUNG -
## #   Niederschlag - Niederschlagsmenge insgesamt` <dbl>, `WITTERUNG -
## #   Niederschlag - Tage mit Niederschlgen` <dbl>, `WITTERUNG -
## #   Sonnenschein - Sonnenscheindauer` <dbl>, `WIRTSCHAFT - Bauhauptgewerbe
## #   - Auftragseingnge` <dbl>, `WIRTSCHAFT - Bauhauptgewerbe -
## #   Betriebe` <dbl>, `WIRTSCHAFT - Bauhauptgewerbe - Entgelte` <dbl>,
## #   `WIRTSCHAFT - Bauhauptgewerbe - Geleistete Arbeitsstd. -
## #   insges.` <dbl>, `WIRTSCHAFT - Bauhauptgewerbe - Geleistete Arbeitsstd.
…
# dsFinal %>% 
#   correlate(use = "pairwise.complete.obs") %>% 
#   network_plot(min_cor = 0.98)

dsAgg %>%
  inner_join(nasFinal, by = c("x_field"="field_name")) %>%
  filter(NAs_proc <0.1) %>%
  select(x_field, y_field, r, NAs_proc) -> dsAggFiltered
(dsAggFiltered)

## # A tibble: 108 x 4
##    x_field                      y_field                          r NAs_proc
##    <chr>                        <chr>                        <dbl>    <dbl>
##  1 BEVLKERUNG - Altersgruppen~ SOZIALE LEISTUNGEN - Grunds~ 0.982  0.00847
##  2 BEVLKERUNG - Altersgruppen~ SOZIALE LEISTUNGEN - Grunds~ 0.981  0.00847
##  3 BEVLKERUNG - Altersgruppen~ SOZIALE LEISTUNGEN - Empfn~ 0.991  0.00847
##  4 BEVLKERUNG - Altersgruppen~ SOZIALE LEISTUNGEN - Empfn~ 0.981  0.00847
##  5 BEVLKERUNG - Altersgruppen~ SOZIALE LEISTUNGEN - Grunds~ 0.990  0.00847
##  6 BEVLKERUNG - Altersgruppen~ KFZ-Bestand - Fahrzeugtypen~ 0.985  0.00847
##  7 BEVLKERUNG - Altersgruppen~ SOZIALE LEISTUNGEN - Empfn~ 0.992  0.00847
##  8 BEVLKERUNG - Altersgruppen~ SOZIALE LEISTUNGEN - Empfn~ 0.981  0.00847
##  9 BEVLKERUNG - Altersgruppen~ SOZIALE LEISTUNGEN - Grunds~ 0.989  0.00847
## 10 BEVLKERUNG - Altersgruppen~ SOZIALE LEISTUNGEN - Empfn~ 0.981  0.00847
## # ... with 98 more rows
…
