…
## the correlate package

``` r
library(corrr)
correlate(dsFinal, use = "pairwise.complete.obs")
```

    ## 
    ## Correlation method: 'pearson'
    ## Missing treated using: 'pairwise.complete.obs'

    ## # A tibble: 288 x 289
    ##    rowname `WITTERUNG - Lu~ `WITTERUNG - Lu~ `WITTERUNG - Lu~
    ##    <chr>              <dbl>            <dbl>            <dbl>
    ##  1 WITTER~          NA              -0.651            -0.625 
    ##  2 WITTER~          -0.651          NA                 0.959 
    ##  3 WITTER~          -0.625           0.959            NA     
    ##  4 WITTER~          -0.517           0.905             0.959 
    ##  5 WITTER~          -0.0898          0.442             0.489 
    ##  6 WITTER~           0.257          -0.0969           -0.0821
    ##  7 WITTER~          -0.823           0.832             0.847 
    ##  8 WIRTSC~           0.0196          0.00636           0.0359
    ##  9 WIRTSC~          -0.125          -0.0104            0.0165
    ## 10 WIRTSC~          -0.209           0.279             0.310 
    ## # ... with 278 more rows, and 285 more variables: `WITTERUNG -
    ## #   Lufttemperatur - Tiefste Lufttemperatur` <dbl>, `WITTERUNG -
    ## #   Niederschlag - Niederschlagsmenge insgesamt` <dbl>, `WITTERUNG -
    ## #   Niederschlag - Tage mit Niederschlägen` <dbl>, `WITTERUNG -
    ## #   Sonnenschein - Sonnenscheindauer` <dbl>, `WIRTSCHAFT - Bauhauptgewerbe
    ## #   - Auftragseingänge` <dbl>, `WIRTSCHAFT - Bauhauptgewerbe -
    ## #   Betriebe` <dbl>, `WIRTSCHAFT - Bauhauptgewerbe - Entgelte` <dbl>,
    ## #   `WIRTSCHAFT - Bauhauptgewerbe - Geleistete Arbeitsstd. -
    ## #   insges.` <dbl>, `WIRTSCHAFT - Bauhauptgewerbe - Geleistete Arbeitsstd.
…
``` r
# dsFinal %>% 
#   correlate(use = "pairwise.complete.obs") %>% 
#   network_plot(min_cor = 0.98)

  

dsAgg %>%
  inner_join(nasFinal, by = c("x_field"="field_name")) %>%
  filter(NAs_proc <0.1) %>%
  select(x_field, y_field, r, NAs_proc) -> dsAggFiltered
(dsAggFiltered)
```

    ## # A tibble: 77 x 4
    ##    x_field                      y_field                          r NAs_proc
    ##    <chr>                        <chr>                        <dbl>    <dbl>
    ##  1 BEVÖLKERUNG - Altersgruppen~ SOZIALE LEISTUNGEN - Grunds~ 0.981  0.00420
    ##  2 BEVÖLKERUNG - Altersgruppen~ SOZIALE LEISTUNGEN - Empfän~ 0.987  0.00420
    ##  3 BEVÖLKERUNG - Altersgruppen~ SOZIALE LEISTUNGEN - Grunds~ 0.984  0.00420
    ##  4 BEVÖLKERUNG - Altersgruppen~ KFZ-Bestand - Fahrzeugtypen~ 0.986  0.00420
    ##  5 BEVÖLKERUNG - Altersgruppen~ WIRTSCHAFT - Handwerksbetri~ 0.980  0.00420
    ##  6 BEVÖLKERUNG - Altersgruppen~ SOZIALE LEISTUNGEN - Empfän~ 0.988  0.00420
    ##  7 BEVÖLKERUNG - Altersgruppen~ SOZIALE LEISTUNGEN - Grunds~ 0.983  0.00420
    ##  8 BEVÖLKERUNG - Altersgruppen~ SOZIALE LEISTUNGEN - Empfän~ 0.982  0.00420
    ##  9 BEVÖLKERUNG - Altersgruppen~ SOZIALE LEISTUNGEN - Grunds~ 0.982  0.00420
    ## 10 BEVÖLKERUNG - Altersgruppen~ SOZIALE LEISTUNGEN - Grunds~ 0.987  0.00420
    ## # ... with 67 more rows
…
